{
    "presets": [
        [
            "@babel/preset-env",
            {
                "useBuiltIns": "usage",
                "targets": {
                    "edge": "17",
                    "firefox": "60",
                    "chrome": "102",
                    "safari": "11.1"
                },
                "corejs": "3.33.0"
            }
        ]
    ]
}