{
    "presets": [
        [
            "@babel/preset-env",
            {
                "targets": {
                    // "ie": 11
                    "firefox": 60
                },
                "useBuiltIns": "usage",
                "corejs": "3.33.0"
            }
        ]
    ]
}